{
  "project_info": {
    "project_number": "1038960694662",
    "firebase_url": "https://kapsamliandroidegitim.firebaseio.com",
    "project_id": "kapsamliandroidegitim",
    "storage_bucket": "kapsamliandroidegitim.appspot.com"
  },
  "client": [
    {
      "client_info": {
        "mobilesdk_app_id": "1:1038960694662:android:1c9cbc759f1143c7",
        "android_client_info": {
          "package_name": "com.example.mk.firebaseegitimi1"
        }
      },
      "oauth_client": [
        {
          "client_id": "1038960694662-l1efuhtsibq4gcitema9so7a9ioejaa9.apps.googleusercontent.com",
          "client_type": 1,
          "android_info": {
            "package_name": "com.example.mk.firebaseegitimi1",
            "certificate_hash": "f098c94deddf8e3b2a38bfdbe5792840a2066242"
          }
        },
        {
          "client_id": "1038960694662-avs7rr0qauj9v5qdiujfa4u8sibera3a.apps.googleusercontent.com",
          "client_type": 3
        }
      ],
      "api_key": [
        {
          "current_key": "AIzaSyChmsm12agGo3nnfOK4XmSaD6RUXdptYMk"
        }
      ],
      "services": {
        "analytics_service": {
          "status": 1
        },
        "appinvite_service": {
          "status": 2,
          "other_platform_oauth_client": [
            {
              "client_id": "1038960694662-avs7rr0qauj9v5qdiujfa4u8sibera3a.apps.googleusercontent.com",
              "client_type": 3
            }
          ]
        },
        "ads_service": {
          "status": 2
        }
      }
    },
    {
      "client_info": {
        "mobilesdk_app_id": "1:1038960694662:android:38ca63ce27a6e437",
        "android_client_info": {
          "package_name": "com.example.mk.firebase2"
        }
      },
      "oauth_client": [
        {
          "client_id": "1038960694662-2ni3ckelkocck2a9n0a8vbfim2svrt1e.apps.googleusercontent.com",
          "client_type": 1,
          "android_info": {
            "package_name": "com.example.mk.firebase2",
            "certificate_hash": "f098c94deddf8e3b2a38bfdbe5792840a2066242"
          }
        },
        {
          "client_id": "1038960694662-avs7rr0qauj9v5qdiujfa4u8sibera3a.apps.googleusercontent.com",
          "client_type": 3
        }
      ],
      "api_key": [
        {
          "current_key": "AIzaSyChmsm12agGo3nnfOK4XmSaD6RUXdptYMk"
        }
      ],
      "services": {
        "analytics_service": {
          "status": 1
        },
        "appinvite_service": {
          "status": 2,
          "other_platform_oauth_client": [
            {
              "client_id": "1038960694662-avs7rr0qauj9v5qdiujfa4u8sibera3a.apps.googleusercontent.com",
              "client_type": 3
            }
          ]
        },
        "ads_service": {
          "status": 2
        }
      }
    },
    {
      "client_info": {
        "mobilesdk_app_id": "1:1038960694662:android:5d60cdb40e2ef101",
        "android_client_info": {
          "package_name": "com.example.mk.firebase3"
        }
      },
      "oauth_client": [
        {
          "client_id": "1038960694662-4ogcsu7rb1848liogdjfirnkc2dqgdcg.apps.googleusercontent.com",
          "client_type": 1,
          "android_info": {
            "package_name": "com.example.mk.firebase3",
            "certificate_hash": "f098c94deddf8e3b2a38bfdbe5792840a2066242"
          }
        },
        {
          "client_id": "1038960694662-avs7rr0qauj9v5qdiujfa4u8sibera3a.apps.googleusercontent.com",
          "client_type": 3
        }
      ],
      "api_key": [
        {
          "current_key": "AIzaSyChmsm12agGo3nnfOK4XmSaD6RUXdptYMk"
        }
      ],
      "services": {
        "analytics_service": {
          "status": 1
        },
        "appinvite_service": {
          "status": 2,
          "other_platform_oauth_client": [
            {
              "client_id": "1038960694662-avs7rr0qauj9v5qdiujfa4u8sibera3a.apps.googleusercontent.com",
              "client_type": 3
            }
          ]
        },
        "ads_service": {
          "status": 2
        }
      }
    },
    {
      "client_info": {
        "mobilesdk_app_id": "1:1038960694662:android:953d0dbb44581d94",
        "android_client_info": {
          "package_name": "com.example.mk.firebase4"
        }
      },
      "oauth_client": [
        {
          "client_id": "1038960694662-ut75fggjldar3mu24t3eug66vnbi2kab.apps.googleusercontent.com",
          "client_type": 1,
          "android_info": {
            "package_name": "com.example.mk.firebase4",
            "certificate_hash": "f098c94deddf8e3b2a38bfdbe5792840a2066242"
          }
        },
        {
          "client_id": "1038960694662-avs7rr0qauj9v5qdiujfa4u8sibera3a.apps.googleusercontent.com",
          "client_type": 3
        }
      ],
      "api_key": [
        {
          "current_key": "AIzaSyChmsm12agGo3nnfOK4XmSaD6RUXdptYMk"
        }
      ],
      "services": {
        "analytics_service": {
          "status": 1
        },
        "appinvite_service": {
          "status": 2,
          "other_platform_oauth_client": [
            {
              "client_id": "1038960694662-avs7rr0qauj9v5qdiujfa4u8sibera3a.apps.googleusercontent.com",
              "client_type": 3
            }
          ]
        },
        "ads_service": {
          "status": 2
        }
      }
    }
  ],
  "configuration_version": "1"
}